a: 34 ,  percentage: 8.13%
b: 4 ,  percentage: 0.96%
c: 17 ,  percentage: 4.07%
d: 9 ,  percentage: 2.15%
e: 42 ,  percentage: 10.05%
f: 6 ,  percentage: 1.44%
g: 10 ,  percentage: 2.39%
h: 3 ,  percentage: 0.72%
i: 40 ,  percentage: 9.57%
l: 21 ,  percentage: 5.02%
,: 3 ,  percentage: 0.72%
m: 20 ,  percentage: 4.78%
n: 21 ,  percentage: 5.02%
.: 9 ,  percentage: 2.15%
o: 23 ,  percentage: 5.5%
p: 6 ,  percentage: 1.44%
q: 4 ,  percentage: 0.96%
r: 19 ,  percentage: 4.55%
s: 11 ,  percentage: 2.63%
t: 29 ,  percentage: 6.94%
u: 33 ,  percentage: 7.89%
v: 3 ,  percentage: 0.72%
w: 3 ,  percentage: 0.72%
